{
   "add": {
      "message": "اندراج کریں"
   },
   "block_element": {
      "message": "بلاک عنصر"
   },
   "cancel": {
      "message": "منسوخ کریں"
   },
   "common_copyright": {
      "message": "کاپی رآئیٹ © $year$ سارے حقین محفوظ. Adblock Plus® ہے اندراج \u003Ca0>eyeo GmbH\u003C/a0> کا.",
      "placeholders": {
         "year": {
            "content": "$1",
            "example": "1984"
         }
      }
   },
   "continue": {
      "message": "جاری رکھیں"
   },
   "copy_selected": {
      "message": "منتحب کو کاپی کریں"
   },
   "delete": {
      "message": "حذف کردہ"
   },
   "description": {
      "message": "ایڈ بلاک پلس، 5 کروڑ بار ڈاؤن لوڈ کیا جانے والا سب سے مقبول غیر ضروری اشتہارات کو روکنے والا سافٹ ویئر ہے۔"
   },
   "easy_create_filter": {
      "message": "بلاک عنصر"
   },
   "filter_action_failed": {
      "message": "کچ مسئلہ ہو گیا ہیں- برای کرم ایک بار اور کوشیس کریں"
   },
   "filter_elemhideemulation_nodomain": {
      "message": "فلٹر چھپانے والے عنصر کے لئے کوئی فعال ڈومین متعین نہیں ہے۔"
   },
   "filter_invalid_csp": {
      "message": "غلط مواد کی سیکیورٹی پالیسی"
   },
   "filter_invalid_domain": {
      "message": "غلط (یا خالی) ڈومین متعین کیا گیا ہے"
   },
   "filter_invalid_regexp": {
      "message": "غیر مستقل اظہار"
   },
   "filter_unknown_option": {
      "message": "نامعلوم فلٹر کے اختیارات"
   },
   "filters_subscription_lastDownload_connectionError": {
      "message": "ناکام ہوگیا، ڈاؤن لوڈ کرنے میں ناکامی کا سامنا"
   },
   "line": {
      "message": "لائن$number$: $message$",
      "placeholders": {
         "message": {
            "content": "$2",
            "example": "Some error on this line"
         },
         "number": {
            "content": "$1",
            "example": "42"
         }
      }
   },
   "name": {
      "message": "ایڈ بلاک پلس"
   },
   "name_releasebuild": {
      "description": "Extension name to be shown for release builds. Note: this cannot be longer than 45 characters.",
      "message": "Adblock Plus - free ad blocker"
   },
   "options_page_document_title": {
      "message": "ترتیبات"
   }
}
